Starting run with 0 warmup runs and 5 benchmark runs at 2015-06-24T12:52:01.944.
Warmup done in 0 seconds
Total runtime for 5 iterations is 169772 millis, average runtime is 33954.4 millis
8288
18965
32707
48712
61100
