Starting run with 5 warmup runs and 5 benchmark runs at 2015-06-24T09:16:00.574.
Warmup done in 159 seconds
Total runtime for 5 iterations is 512838 millis, average runtime is 102567.6 millis
69448
93061
101651
123180
125498
