Starting run with 5 warmup runs and 5 benchmark runs at 2015-06-09T09:37:13.692.
Warmup done in 68 seconds
Total runtime for 5 iterations is 60303 millis, average runtime is 12060.6 millis
12082
12109
12102
11928
12082
