Starting run with 5 warmup runs and 5 benchmark runs at 2015-06-09T09:26:04.679.
Warmup done in 64 seconds
Total runtime for 5 iterations is 61831 millis, average runtime is 12366.2 millis
12372
12382
12406
12686
11985
